ProblemSet4
…
# mean and median of arrival delay
tb_flights %>%
  #left_join(nycflights13::airports, by = c("dest" = "faa")) %>%
  group_by(dest) %>%
  filter(n() >= 10) %>%
  ungroup() %>% 
  select(dest, arr_delay) %>%
  group_by(dest) %>%
  summarise(arr_delay_mean = mean(arr_delay, na.rm = TRUE),
            arr_delay_median = median(arr_delay, na.rm = TRUE)) %>% 
  left_join(nycflights13::airports, by = c("dest" = "faa")) %>%
  select(name, arr_delay_mean, arr_delay_median) %>% 
  arrange(desc(arr_delay_mean))

# A tibble: 102 × 3
   name                          arr_delay_mean arr_delay_median
   <chr>                                  <dbl>            <dbl>
 1 Columbia Metropolitan                   41.8               28
 2 Tulsa Intl                              33.7               14
 3 Will Rogers World                       30.6               16
 4 Jackson Hole Airport                    28.1               15
 5 Mc Ghee Tyson                           24.1                2
 6 Dane Co Rgnl Truax Fld                  20.2                1
 7 Richmond Intl                           20.1                1
 8 Akron Canton Regional Airport           19.7                3
 9 Des Moines Intl                         19.0                0
10 Gerald R Ford Intl                      18.2                1
# ℹ 92 more rows
…
